Adding external data to ggseg plotting • ggseg
…
## The following objects are masked from 'package:stats':
## 
##     filter, lag

## The following objects are masked from 'package:base':
## 
##     intersect, setdiff, setequal, union

library(ggplot2)
dkt

## # A tibble: 80 x 6
##    atlas area               hemi  side    label             ggseg          
##    <chr> <chr>              <chr> <chr>   <chr>             <list>         
##  1 dkt   superior temporal  left  lateral lh_superiortempo… <tibble [1,494…
##  2 dkt   pre central        left  lateral lh_precentral     <tibble [1,314…
##  3 dkt   post central       left  lateral lh_postcentral    <tibble [1,164…
##  4 dkt   rostral middle fr… left  lateral lh_rostralmiddle… <tibble [1,194…
##  5 dkt   insula             left  lateral lh_insula         <tibble [870 ×…
##  6 dkt   superior parietal  left  lateral lh_superiorparie… <tibble [480 ×…
##  7 dkt   inferior temporal  left  lateral lh_inferiortempo… <tibble [906 ×…
##  8 dkt   lateral occipital  left  lateral lh_lateraloccipi… <tibble [738 ×…
##  9 dkt   lateral orbitofro… left  lateral lh_lateralorbito… <tibble [528 ×…
## 10 dkt   superior frontal   left  lateral lh_superiorfront… <tibble [420 ×…
## # … with 70 more rows
…
