Adding external data to ggseg plotting • ggseg
…
Further inspection of the atlas data can be explored by turning them into tibbles (or data.frames)

as_tibble(dk)

## # A tibble: 90 × 8
##    atlas type     hemi  side    region     label roi                    geometry
##    <chr> <chr>    <chr> <chr>   <chr>      <chr> <chr>            <MULTIPOLYGON>
##  1 dk    cortical left  lateral NA         NA    0001  (((84.32563 34.46407, 84…
##  2 dk    cortical left  lateral bankssts   lh_b… 0002  (((214.8215 108.8139, 21…
##  3 dk    cortical left  lateral caudal mi… lh_c… 0004  (((106.16 184.3144, 93.6…
##  4 dk    cortical left  lateral fusiform   lh_f… 0008  (((256.5481 48.35713, 24…
##  5 dk    cortical left  lateral inferior … lh_i… 0009  (((218.4373 161.6233, 21…
##  6 dk    cortical left  lateral inferior … lh_i… 0010  (((250.7745 70.75764, 24…
##  7 dk    cortical left  lateral lateral o… lh_l… 0012  (((277.4615 115.0523, 27…
##  8 dk    cortical left  lateral lateral o… lh_l… 0013  (((66.26648 69.56474, 56…
##  9 dk    cortical left  lateral middle te… lh_m… 0016  (((238.0128 91.25816, 23…
## 10 dk    cortical left  lateral pars oper… lh_p… 0019  (((79.03391 126.496, 74.…
## # … with 80 more rows
…
Notice you we have spelled both the column name and the region names exactly as they appear in the data. This is necessary for the merging within the ggseg function to work properly. This merge can be attempted before supplying the data to ggseg to see if there are any errors.

dk %>% 
  as_tibble() %>% 
  left_join(someData)

## Joining, by = "region"

## # A tibble: 90 × 9
##    atlas type     hemi  side  region label roi                    geometry     p
##    <chr> <chr>    <chr> <chr> <chr>  <chr> <chr>            <MULTIPOLYGON> <dbl>
##  1 dk    cortical left  late… NA     NA    0001  (((84.32563 34.46407, 84… NA   
##  2 dk    cortical left  late… banks… lh_b… 0002  (((214.8215 108.8139, 21… NA   
##  3 dk    cortical left  late… cauda… lh_c… 0004  (((106.16 184.3144, 93.6… NA   
##  4 dk    cortical left  late… fusif… lh_f… 0008  (((256.5481 48.35713, 24… NA   
##  5 dk    cortical left  late… infer… lh_i… 0009  (((218.4373 161.6233, 21… NA   
##  6 dk    cortical left  late… infer… lh_i… 0010  (((250.7745 70.75764, 24… NA   
##  7 dk    cortical left  late… later… lh_l… 0012  (((277.4615 115.0523, 27… NA   
##  8 dk    cortical left  late… later… lh_l… 0013  (((66.26648 69.56474, 56…  0.05
##  9 dk    cortical left  late… middl… lh_m… 0016  (((238.0128 91.25816, 23… NA   
## 10 dk    cortical left  late… pars … lh_p… 0019  (((79.03391 126.496, 74.… NA   
## # … with 80 more rows

No errors! Yes, the p column is seemingly full of NAs, but that is just because the top of the data is the somatomotor network, which we did not supply any p values for, so it has been populated with NAs. We can sort the data differently, so we can see the phas been added correctly.

dk %>% 
  as_tibble() %>% 
  left_join(someData) %>% 
  arrange(p)

## Joining, by = "region"

## # A tibble: 90 × 9
##    atlas type     hemi  side  region label roi                    geometry     p
##    <chr> <chr>    <chr> <chr> <chr>  <chr> <chr>            <MULTIPOLYGON> <dbl>
##  1 dk    cortical left  late… super… lh_s… 0031  (((207.634 112.8177, 195…  0.03
##  2 dk    cortical right late… super… rh_s… 0031  (((1201.097 114.4479, 12…  0.03
##  3 dk    cortical left  late… later… lh_l… 0013  (((66.26648 69.56474, 56…  0.05
##  4 dk    cortical left  medi… later… lh_l… 0013  (((571.041 20.11423, 571…  0.05
##  5 dk    cortical right medi… later… rh_l… 0013  (((770.9836 30.46747, 77…  0.05
##  6 dk    cortical right late… later… rh_l… 0013  (((1321.97 75.4817, 1320…  0.05
##  7 dk    cortical left  late… prece… lh_p… 0025  (((157.1559 204.0537, 13…  0.6 
##  8 dk    cortical left  medi… prece… lh_p… 0025  (((476.8878 196.7183, 48…  0.6 
##  9 dk    cortical right medi… prece… rh_p… 0025  (((923.7245 201.5463, 92…  0.6 
## 10 dk    cortical right late… prece… rh_p… 0025  (((1226.19 203.939, 1230…  0.6 
## # … with 80 more rows
…
## # A tibble: 3 × 3
##   region                    p hemi 
##   <chr>                 <dbl> <chr>
## 1 superior temporal      0.03 left 
## 2 precentral             0.6  left 
## 3 lateral orbitofrontal  0.05 left

dk %>% 
  as_tibble() %>% 
  left_join(someData) %>% 
  arrange(p)

## Joining, by = c("hemi", "region")

## # A tibble: 90 × 9
##    atlas type     hemi  side  region label roi                    geometry     p
##    <chr> <chr>    <chr> <chr> <chr>  <chr> <chr>            <MULTIPOLYGON> <dbl>
##  1 dk    cortical left  late… super… lh_s… 0031  (((207.634 112.8177, 195…  0.03
##  2 dk    cortical left  late… later… lh_l… 0013  (((66.26648 69.56474, 56…  0.05
##  3 dk    cortical left  medi… later… lh_l… 0013  (((571.041 20.11423, 571…  0.05
##  4 dk    cortical left  late… prece… lh_p… 0025  (((157.1559 204.0537, 13…  0.6 
##  5 dk    cortical left  medi… prece… lh_p… 0025  (((476.8878 196.7183, 48…  0.6 
##  6 dk    cortical left  late… NA     NA    0001  (((84.32563 34.46407, 84… NA   
##  7 dk    cortical left  late… banks… lh_b… 0002  (((214.8215 108.8139, 21… NA   
##  8 dk    cortical left  late… cauda… lh_c… 0004  (((106.16 184.3144, 93.6… NA   
##  9 dk    cortical left  late… fusif… lh_f… 0008  (((256.5481 48.35713, 24… NA   
## 10 dk    cortical left  late… infer… lh_i… 0009  (((218.4373 161.6233, 21… NA   
## # … with 80 more rows
…
