Read in files from Freesurfer • ggseg
…
Raw stats files

Read in single raw stats file

If recon-all from Freesurfer has been run, each participant should have a stats folder, with various parcellation data and summary statistics for those parcellations and measures. These have many header lines before the data acutally start, and can have some formatting difficult to handle in R.

The function read_freesurfer_stats is made to easily read in raw stats tables from each individual, without needing to go through Freesurfers internal converters. When using this file, remembering which hemisphere is read in is important, as this information must be added to the label column for ggseg to recognise the region labels.

library(ggseg)
subject_dir <- "/Applications/freesurfer/subjects/"
stats_file <- paste0(subject_dir, "bert/stats/lh.aparc.stats")

data <- read_freesurfer_stats(stats_file)
data
#> # A tibble: 34 x 10
#>    label NumVert SurfArea GrayVol ThickAvg ThickStd MeanCurv GausCurv FoldInd
#>    <chr>   <int>    <int>   <int>    <dbl>    <dbl>    <dbl>    <dbl>   <int>
#>  1 bank…    1181      831    2297     2.77    0.428    0.116    0.024      11
#>  2 caud…     843      572    1534     2.72    0.469    0.124    0.013      10
#>  3 caud…    2758     1840    5772     2.80    0.526    0.114    0.021      26
#>  4 cune…    2683     1654    3074     1.81    0.471    0.14     0.033      39
#>  5 ento…     581      416    1840     3.33    0.667    0.116    0.032       5
#>  6 fusi…    4113     2875    8519     2.72    0.599    0.131    0.025      52
#>  7 infe…    4948     3466   10559     2.70    0.509    0.131    0.029      65
#>  8 infe…    5056     3542   12358     2.98    0.625    0.138    0.033      74
#>  9 isth…    1561      990    2350     2.09    0.745    0.113    0.023      19
#> 10 late…    7961     5077   12743     2.30    0.588    0.139    0.033     104
#> # … with 24 more rows, and 1 more variable: CurvInd <dbl>
…
Read in raw stats files for an atlas for all subjects

A convenience function also exists for those wanting to circumvent the aparcstats2table and asegstats2table from freesurfer for creating larger datasets of all subjects for a specific parcellation and metric. Using the function read_freesurfer_stats, read_atlas_files uses regular expression for the atlas you want to extract data from, and grabs this data from all available subjects. Be careful with your pattern matching to be sure you get exactly the atlas you want. For instance, there are several atlases with with string aparc in them. So in order to get only the default aparc stats, we need to specify aparc.stats$, which will only read those files ending with that particular string. This function can throw warnings, which is most cases can be ignored.

dat <- read_atlas_files(subject_dir, "aparc.stats$")
dat
#> # A tibble: 68 x 11
#>    subject label NumVert SurfArea GrayVol ThickAvg ThickStd MeanCurv GausCurv
#>    <chr>   <chr>   <int>    <int>   <int>    <dbl>    <dbl>    <dbl>    <dbl>
#>  1 bert    lh_b…    1181      831    2297     2.77    0.428    0.116    0.024
#>  2 bert    lh_c…     843      572    1534     2.72    0.469    0.124    0.013
#>  3 bert    lh_c…    2758     1840    5772     2.80    0.526    0.114    0.021
#>  4 bert    lh_c…    2683     1654    3074     1.81    0.471    0.14     0.033
#>  5 bert    lh_e…     581      416    1840     3.33    0.667    0.116    0.032
#>  6 bert    lh_f…    4113     2875    8519     2.72    0.599    0.131    0.025
#>  7 bert    lh_i…    4948     3466   10559     2.70    0.509    0.131    0.029
#>  8 bert    lh_i…    5056     3542   12358     2.98    0.625    0.138    0.033
#>  9 bert    lh_i…    1561      990    2350     2.09    0.745    0.113    0.023
#> 10 bert    lh_l…    7961     5077   12743     2.30    0.588    0.139    0.033
#> # … with 58 more rows, and 2 more variables: FoldInd <int>, CurvInd <dbl>
…
Freesurfer stats tables

Freesurfer has internal functions to convert their raw stats files into tables, gather subject into a single data file with particular metric. It is quite common to use these files, but again the formatting is not something R is very happy with. The function read_freesurfer_table() is for easier import of these files, particularly for further plotting with ggseg.

# Path to our particular file, yours will be wherever you have saved it
table_path <- here::here("tests/testthat/data/aparc.volume.table")
table_path
#> [1] "/home/travis/build/LCBC-UiO/ggseg/tests/testthat/data/aparc.volume.table"

read_freesurfer_table(table_path)
#> # A tibble: 36 x 3
#>    subject label                             value
#>    <fct>   <chr>                             <dbl>
#>  1 bert    rh_bankssts_volume                 1969
#>  2 bert    rh_caudalanteriorcingulate_volume  2280
#>  3 bert    rh_caudalmiddlefrontal_volume      5390
#>  4 bert    rh_cuneus_volume                   2998
#>  5 bert    rh_entorhinal_volume               1735
#>  6 bert    rh_fusiform_volume                 8144
#>  7 bert    rh_inferiorparietal_volume        14876
#>  8 bert    rh_inferiortemporal_volume        11016
#>  9 bert    rh_isthmuscingulate_volume         1983
#> 10 bert    rh_lateraloccipital_volume        12729
#> # … with 26 more rows

The file is read and has three columns only. The subject column, the label column, and a column with the values of the metric. Since the stats tables can contain different measures, and these are handled somewhat differently, we for convenience leave the default reading of the table this way. To work with ggseg, though, the labels usually (but not always) need a little cleaning. In this case we read in a volume table, and as such all labels end with "_volume". ggseg will not recognise this matching the atlas, and will therefore not plot.

Easiest way to clean, is by using the measure argument for the function.

dat <- read_freesurfer_table(table_path, measure = "volume")
dat
#> # A tibble: 36 x 3
#>    subject label                      volume
#>    <fct>   <chr>                       <dbl>
#>  1 bert    rh_bankssts                  1969
#>  2 bert    rh_caudalanteriorcingulate   2280
#>  3 bert    rh_caudalmiddlefrontal       5390
#>  4 bert    rh_cuneus                    2998
#>  5 bert    rh_entorhinal                1735
#>  6 bert    rh_fusiform                  8144
#>  7 bert    rh_inferiorparietal         14876
#>  8 bert    rh_inferiortemporal         11016
#>  9 bert    rh_isthmuscingulate          1983
#> 10 bert    rh_lateraloccipital         12729
#> # … with 26 more rows
…
