Using geom_brain • ggseg
…
#>          superior parietal          superior temporal 
#>                  "#14B48C"                  "#8CDCDC" 
#>              supramarginal               frontal pole 
#>                  "#50A014"                  "#640064" 
#>              temporal pole        transverse temporal 
#>                  "#464646"                  "#9696C8" 
#>                     insula 
#>                  "#FFC020"
dk$data
#> Simple feature collection with 90 features and 5 fields
#> Geometry type: MULTIPOLYGON
#> Dimension:     XY
#> Bounding box:  xmin: 0 ymin: 0 xmax: 1390.585 ymax: 205.4407
#> CRS:           NA
#> # A tibble: 90 × 6
#>    hemi  side    region                label                   roi                    geometry
#>  * <chr> <chr>   <chr>                 <chr>                   <chr>            <MULTIPOLYGON>
#>  1 left  lateral <NA>                  <NA>                    0001  (((84.32563 34.46407, 84…
#>  2 left  lateral bankssts              lh_bankssts             0002  (((214.8215 108.8139, 21…
#>  3 left  lateral caudal middle frontal lh_caudalmiddlefrontal  0004  (((106.16 184.3144, 93.6…
#>  4 left  lateral fusiform              lh_fusiform             0008  (((256.5481 48.35713, 24…
#>  5 left  lateral inferior parietal     lh_inferiorparietal     0009  (((218.4373 161.6233, 21…
#>  6 left  lateral inferior temporal     lh_inferiortemporal     0010  (((250.7745 70.75764, 24…
#>  7 left  lateral lateral occipital     lh_lateraloccipital     0012  (((277.4615 115.0523, 27…
#>  8 left  lateral lateral orbitofrontal lh_lateralorbitofrontal 0013  (((66.26648 69.56474, 56…
#>  9 left  lateral middle temporal       lh_middletemporal       0016  (((238.0128 91.25816, 23…
#> 10 left  lateral pars opercularis      lh_parsopercularis      0019  (((79.03391 126.496, 74.…
#> # … with 80 more rows
…
